<?xml version="1.0" encoding="UTF-8" standalone="no"?>
<!DOCTYPE svg PUBLIC "-//W3C//DTD SVG 1.1//EN"
 "http://www.w3.org/Graphics/SVG/1.1/DTD/svg11.dtd">
<!-- Generated by graphviz version 2.36.0 (20140111.2315)
 -->
<!-- Title: %3 Pages: 1 -->
<svg width="260pt" height="234pt"
 viewBox="0.00 0.00 260.00 234.00" xmlns="http://www.w3.org/2000/svg" xmlns:xlink="http://www.w3.org/1999/xlink">
<g id="graph0" class="graph" transform="scale(1 1) rotate(0) translate(4 230)">
<title>%3</title>
<polygon fill="white" stroke="none" points="-4,4 -4,-230 256,-230 256,4 -4,4"/>
<!-- 1 -->
<g id="node1" class="node"><title>1</title>
<polygon fill="#ff0000" stroke="#ff0000" points="178.25,-225.5 123.75,-225.5 123.75,-184.5 178.25,-184.5 178.25,-225.5"/>
<text text-anchor="middle" x="151" y="-213.5" font-family="Arial" font-size="10.00" fill="#ffffff">main</text>
<text text-anchor="middle" x="151" y="-202.5" font-family="Arial" font-size="10.00" fill="#ffffff">100.00%</text>
<text text-anchor="middle" x="151" y="-191.5" font-family="Arial" font-size="10.00" fill="#ffffff">(3.23%)</text>
</g>
<!-- 2 -->
<g id="node2" class="node"><title>2</title>
<polygon fill="#0aaf2a" stroke="#0aaf2a" points="110.25,-144 49.75,-144 49.75,-92 110.25,-92 110.25,-144"/>
<text text-anchor="middle" x="80" y="-132" font-family="Arial" font-size="10.00" fill="#ffffff">htable_del</text>
<text text-anchor="middle" x="80" y="-121" font-family="Arial" font-size="10.00" fill="#ffffff">45.16%</text>
<text text-anchor="middle" x="80" y="-110" font-family="Arial" font-size="10.00" fill="#ffffff">(32.26%)</text>
<text text-anchor="middle" x="80" y="-99" font-family="Arial" font-size="10.00" fill="#ffffff">475254×</text>
</g>
<!-- 1&#45;&gt;2 -->
<g id="edge1" class="edge"><title>1&#45;&gt;2</title>
<path fill="none" stroke="#0aaf2a" stroke-width="1.81" d="M123.39,-186.468C118.958,-182.978 114.638,-179.111 111,-175 104.603,-167.772 98.9777,-159.003 94.3375,-150.569"/>
<polygon fill="#0aaf2a" stroke="#0aaf2a" stroke-width="1.81" points="96.186,-149.047 90.9846,-144.217 92.0383,-151.237 96.186,-149.047"/>
<text text-anchor="middle" x="130" y="-167" font-family="Arial" font-size="10.00" fill="#0aaf2a">45.16%</text>
<text text-anchor="middle" x="130" y="-156" font-family="Arial" font-size="10.00" fill="#0aaf2a">475254×</text>
</g>
<!-- 3 -->
<g id="node3" class="node"><title>3</title>
<polygon fill="#0b9d73" stroke="#0b9d73" points="181.5,-144 120.5,-144 120.5,-92 181.5,-92 181.5,-144"/>
<text text-anchor="middle" x="151" y="-132" font-family="Arial" font-size="10.00" fill="#ffffff">htable_set</text>
<text text-anchor="middle" x="151" y="-121" font-family="Arial" font-size="10.00" fill="#ffffff">32.26%</text>
<text text-anchor="middle" x="151" y="-110" font-family="Arial" font-size="10.00" fill="#ffffff">(19.35%)</text>
<text text-anchor="middle" x="151" y="-99" font-family="Arial" font-size="10.00" fill="#ffffff">475254×</text>
</g>
<!-- 1&#45;&gt;3 -->
<g id="edge2" class="edge"><title>1&#45;&gt;3</title>
<path fill="none" stroke="#0b9d73" stroke-width="1.29" d="M151,-184.286C151,-174.095 151,-161.424 151,-149.964"/>
<polygon fill="#0b9d73" stroke="#0b9d73" stroke-width="1.29" points="152.995,-149.8 151,-144.1 149.005,-149.8 152.995,-149.8"/>
<text text-anchor="middle" x="170" y="-167" font-family="Arial" font-size="10.00" fill="#0b9d73">32.26%</text>
<text text-anchor="middle" x="170" y="-156" font-family="Arial" font-size="10.00" fill="#0b9d73">475254×</text>
</g>
<!-- 5 -->
<g id="node4" class="node"><title>5</title>
<polygon fill="#0c6f8c" stroke="#0c6f8c" points="252.5,-144 191.5,-144 191.5,-92 252.5,-92 252.5,-144"/>
<text text-anchor="middle" x="222" y="-132" font-family="Arial" font-size="10.00" fill="#ffffff">htable_get</text>
<text text-anchor="middle" x="222" y="-121" font-family="Arial" font-size="10.00" fill="#ffffff">19.35%</text>
<text text-anchor="middle" x="222" y="-110" font-family="Arial" font-size="10.00" fill="#ffffff">(12.90%)</text>
<text text-anchor="middle" x="222" y="-99" font-family="Arial" font-size="10.00" fill="#ffffff">475254×</text>
</g>
<!-- 1&#45;&gt;5 -->
<g id="edge3" class="edge"><title>1&#45;&gt;5</title>
<path fill="none" stroke="#0c6f8c" stroke-width="0.77" d="M178.61,-186.468C183.042,-182.978 187.362,-179.111 191,-175 197.899,-167.205 203.9,-157.617 208.736,-148.592"/>
<polygon fill="#0c6f8c" stroke="#0c6f8c" stroke-width="0.77" points="210.348,-148.83 211.015,-144.217 207.617,-147.407 210.348,-148.83"/>
<text text-anchor="middle" x="226" y="-167" font-family="Arial" font-size="10.00" fill="#0c6f8c">19.35%</text>
<text text-anchor="middle" x="226" y="-156" font-family="Arial" font-size="10.00" fill="#0c6f8c">475254×</text>
</g>
<!-- 4 -->
<g id="node5" class="node"><title>4</title>
<polygon fill="#0c6f8c" stroke="#0c6f8c" points="207,-52 133,-52 133,-0 207,-0 207,-52"/>
<text text-anchor="middle" x="170" y="-40" font-family="Arial" font-size="10.00" fill="#ffffff">_htable_hash</text>
<text text-anchor="middle" x="170" y="-29" font-family="Arial" font-size="10.00" fill="#ffffff">19.35%</text>
<text text-anchor="middle" x="170" y="-18" font-family="Arial" font-size="10.00" fill="#ffffff">(19.35%)</text>
<text text-anchor="middle" x="170" y="-7" font-family="Arial" font-size="10.00" fill="#ffffff">1425762×</text>
</g>
<!-- 2&#45;&gt;4 -->
<g id="edge4" class="edge"><title>2&#45;&gt;4</title>
<path fill="none" stroke="#0d297b" stroke-width="0.5" d="M98.758,-91.8846C100.892,-88.9108 103.013,-85.9018 105,-83 111.548,-73.4371 110.892,-69.2819 119,-61 122.257,-57.6732 125.89,-54.4904 129.676,-51.4997"/>
<polygon fill="#0d297b" stroke="#0d297b" stroke-width="0.5" points="130.857,-52.1371 132.887,-49.0337 129.365,-50.1939 130.857,-52.1371"/>
<text text-anchor="middle" x="138" y="-75" font-family="Arial" font-size="10.00" fill="#0d297b">6.45%</text>
<text text-anchor="middle" x="138" y="-64" font-family="Arial" font-size="10.00" fill="#0d297b">475254×</text>
</g>
<!-- 6 -->
<g id="node6" class="node"><title>6</title>
<polygon fill="#0d4a83" stroke="#0d4a83" points="80,-52 0,-52 0,-0 80,-0 80,-52"/>
<text text-anchor="middle" x="40" y="-40" font-family="Arial" font-size="10.00" fill="#ffffff">_htable_resize</text>
<text text-anchor="middle" x="40" y="-29" font-family="Arial" font-size="10.00" fill="#ffffff">12.90%</text>
<text text-anchor="middle" x="40" y="-18" font-family="Arial" font-size="10.00" fill="#ffffff">(12.90%)</text>
<text text-anchor="middle" x="40" y="-7" font-family="Arial" font-size="10.00" fill="#ffffff">950508×</text>
</g>
<!-- 2&#45;&gt;6 -->
<g id="edge5" class="edge"><title>2&#45;&gt;6</title>
<path fill="none" stroke="#0d297b" stroke-width="0.5" d="M49.7243,-108.315C37.3142,-103.099 24.1961,-95.0607 17,-83 11.868,-74.3987 13.744,-64.4411 18.1216,-55.3288"/>
<polygon fill="#0d297b" stroke="#0d297b" stroke-width="0.5" points="19.3166,-55.6852 19.8393,-52.014 17.1413,-54.5579 19.3166,-55.6852"/>
<text text-anchor="middle" x="36" y="-75" font-family="Arial" font-size="10.00" fill="#0d297b">6.45%</text>
<text text-anchor="middle" x="36" y="-64" font-family="Arial" font-size="10.00" fill="#0d297b">475254×</text>
</g>
<!-- 3&#45;&gt;4 -->
<g id="edge6" class="edge"><title>3&#45;&gt;4</title>
<path fill="none" stroke="#0d297b" stroke-width="0.5" d="M156.293,-91.93C158.661,-80.7116 161.466,-67.4223 163.92,-55.7978"/>
<polygon fill="#0d297b" stroke="#0d297b" stroke-width="0.5" points="165.145,-55.9253 164.67,-52.2477 162.748,-55.4192 165.145,-55.9253"/>
<text text-anchor="middle" x="182" y="-75" font-family="Arial" font-size="10.00" fill="#0d297b">6.45%</text>
<text text-anchor="middle" x="182" y="-64" font-family="Arial" font-size="10.00" fill="#0d297b">475254×</text>
</g>
<!-- 3&#45;&gt;6 -->
<g id="edge7" class="edge"><title>3&#45;&gt;6</title>
<path fill="none" stroke="#0d297b" stroke-width="0.5" d="M120.439,-95.0065C118.309,-93.8967 116.153,-92.8798 114,-92 93.5032,-83.6242 82.4064,-96.6853 65,-83 62.4537,-80.9981 56.6794,-68.2461 51.3212,-55.4164"/>
<polygon fill="#0d297b" stroke="#0d297b" stroke-width="0.5" points="52.4428,-54.9229 49.9702,-52.1594 50.1798,-55.8617 52.4428,-54.9229"/>
<text text-anchor="middle" x="84" y="-75" font-family="Arial" font-size="10.00" fill="#0d297b">6.45%</text>
<text text-anchor="middle" x="84" y="-64" font-family="Arial" font-size="10.00" fill="#0d297b">475254×</text>
</g>
<!-- 5&#45;&gt;4 -->
<g id="edge8" class="edge"><title>5&#45;&gt;4</title>
<path fill="none" stroke="#0d297b" stroke-width="0.5" d="M216.091,-91.976C213.069,-81.9046 208.784,-70.4597 203,-61 201.817,-59.0657 200.507,-57.1537 199.109,-55.2818"/>
<polygon fill="#0d297b" stroke="#0d297b" stroke-width="0.5" points="199.965,-54.3858 196.849,-52.3756 198.031,-55.8903 199.965,-54.3858"/>
<text text-anchor="middle" x="233" y="-75" font-family="Arial" font-size="10.00" fill="#0d297b">6.45%</text>
<text text-anchor="middle" x="233" y="-64" font-family="Arial" font-size="10.00" fill="#0d297b">475254×</text>
</g>
</g>
</svg>
